127.0.0.1 - - [05/Jan/2024:12:19:32 +0530] "GET / HTTP/1.1" 404 751
0:0:0:0:0:0:0:1 - - [05/Jan/2024:12:19:33 +0530] "GET /EmpWebApp/Login.html HTTP/1.1" 304 -
0:0:0:0:0:0:0:1 - - [05/Jan/2024:12:19:50 +0530] "POST /EmpWebApp/LoginServlet HTTP/1.1" 200 231
0:0:0:0:0:0:0:1 - - [05/Jan/2024:12:24:02 +0530] "POST /EmpWebApp/LoginServlet HTTP/1.1" 200 643
0:0:0:0:0:0:0:1 - - [05/Jan/2024:12:25:08 +0530] "GET /EmpWebApp/Register.html HTTP/1.1" 304 -
0:0:0:0:0:0:0:1 - - [05/Jan/2024:12:25:20 +0530] "POST /EmpWebApp/RegisterServlet HTTP/1.1" 200 659
0:0:0:0:0:0:0:1 - - [05/Jan/2024:12:25:29 +0530] "POST /EmpWebApp/LoginServlet HTTP/1.1" 200 225
127.0.0.1 - - [05/Jan/2024:12:52:57 +0530] "GET / HTTP/1.1" 404 751
0:0:0:0:0:0:0:1 - - [05/Jan/2024:12:52:57 +0530] "GET /EmpWebApp/Login.html HTTP/1.1" 200 527
0:0:0:0:0:0:0:1 - - [05/Jan/2024:12:53:11 +0530] "POST /EmpWebApp/LoginServlet HTTP/1.1" 200 225
0:0:0:0:0:0:0:1 - - [05/Jan/2024:12:53:15 +0530] "GET /EmpWebApp/LogoutServlet HTTP/1.1" 200 527
0:0:0:0:0:0:0:1 - - [05/Jan/2024:12:53:21 +0530] "POST /EmpWebApp/LoginServlet HTTP/1.1" 200 643
0:0:0:0:0:0:0:1 - - [05/Jan/2024:12:53:23 +0530] "POST /EmpWebApp/LoginServlet HTTP/1.1" 200 643
0:0:0:0:0:0:0:1 - - [05/Jan/2024:12:53:29 +0530] "POST /EmpWebApp/LoginServlet HTTP/1.1" 200 330
0:0:0:0:0:0:0:1 - - [05/Jan/2024:12:53:32 +0530] "GET /EmpWebApp/GetAllEmps HTTP/1.1" 404 775
0:0:0:0:0:0:0:1 - - [05/Jan/2024:12:54:15 +0530] "GET /EmpWebApp/GetAllEmps HTTP/1.1" 404 775
0:0:0:0:0:0:0:1 - - [05/Jan/2024:12:54:16 +0530] "GET /EmpWebApp/GetAllEmps HTTP/1.1" 404 775
127.0.0.1 - - [05/Jan/2024:12:54:36 +0530] "GET / HTTP/1.1" 404 751
127.0.0.1 - - [05/Jan/2024:12:54:42 +0530] "POST /EmpWebApp/LoginServlet HTTP/1.1" 200 330
127.0.0.1 - - [05/Jan/2024:12:54:44 +0530] "GET /EmpWebApp/GetAllEmps HTTP/1.1" 404 775
127.0.0.1 - - [05/Jan/2024:12:55:45 +0530] "GET /EmpWebApp/GetEmpById.html HTTP/1.1" 404 780
127.0.0.1 - - [05/Jan/2024:12:56:17 +0530] "GET /EmpWebApp/GetEmpById.html HTTP/1.1" 200 392
127.0.0.1 - - [05/Jan/2024:12:56:22 +0530] "POST /EmpWebApp/GetEmpById HTTP/1.1" 200 585
127.0.0.1 - - [05/Jan/2024:12:56:30 +0530] "GET /EmpWebApp/Logout HTTP/1.1" 404 771
127.0.0.1 - - [05/Jan/2024:12:57:18 +0530] "GET /EmpWebApp/Logout HTTP/1.1" 404 771
127.0.0.1 - - [05/Jan/2024:12:58:53 +0530] "GET / HTTP/1.1" 404 751
127.0.0.1 - - [05/Jan/2024:12:59:02 +0530] "POST /EmpWebApp/LoginServlet HTTP/1.1" 200 337
127.0.0.1 - - [05/Jan/2024:12:59:03 +0530] "GET /EmpWebApp/GetAllEmps HTTP/1.1" 404 775
127.0.0.1 - - [05/Jan/2024:12:59:09 +0530] "GET /EmpWebApp/GetEmpById.html HTTP/1.1" 304 -
127.0.0.1 - - [05/Jan/2024:12:59:13 +0530] "POST /EmpWebApp/GetEmpById HTTP/1.1" 200 592
0:0:0:0:0:0:0:1 - - [05/Jan/2024:13:02:32 +0530] "POST /EmpWebApp/LoginServlet HTTP/1.1" 200 337
0:0:0:0:0:0:0:1 - - [05/Jan/2024:13:02:34 +0530] "GET /EmpWebApp/GetAllEmps HTTP/1.1" 404 775
127.0.0.1 - - [05/Jan/2024:13:02:54 +0530] "GET / HTTP/1.1" 404 751
0:0:0:0:0:0:0:1 - - [05/Jan/2024:13:03:00 +0530] "POST /EmpWebApp/LoginServlet HTTP/1.1" 200 337
0:0:0:0:0:0:0:1 - - [05/Jan/2024:13:03:03 +0530] "GET /EmpWebApp/GetAllEmps HTTP/1.1" 200 897
0:0:0:0:0:0:0:1 - - [05/Jan/2024:13:03:05 +0530] "GET /EmpWebApp/GetEmpById.html HTTP/1.1" 304 -
0:0:0:0:0:0:0:1 - - [05/Jan/2024:13:03:14 +0530] "POST /EmpWebApp/GetEmpById HTTP/1.1" 200 585
0:0:0:0:0:0:0:1 - - [05/Jan/2024:13:06:37 +0530] "GET /EmpWebApp/Login.html HTTP/1.1" 304 -
0:0:0:0:0:0:0:1 - - [05/Jan/2024:13:06:42 +0530] "POST /EmpWebApp/LoginServlet HTTP/1.1" 200 337
0:0:0:0:0:0:0:1 - - [05/Jan/2024:13:06:45 +0530] "GET /EmpWebApp/GetEmpById.html HTTP/1.1" 304 -
0:0:0:0:0:0:0:1 - - [05/Jan/2024:13:06:47 +0530] "POST /EmpWebApp/GetEmpById HTTP/1.1" 200 585
0:0:0:0:0:0:0:1 - - [05/Jan/2024:13:07:50 +0530] "GET /EmpWebApp/LogoutServlet HTTP/1.1" 304 -
0:0:0:0:0:0:0:1 - - [05/Jan/2024:13:07:56 +0530] "POST /EmpWebApp/LoginServlet HTTP/1.1" 200 337
0:0:0:0:0:0:0:1 - - [05/Jan/2024:13:07:57 +0530] "GET /EmpWebApp/GetAllEmps HTTP/1.1" 200 897
0:0:0:0:0:0:0:1 - - [05/Jan/2024:13:08:02 +0530] "POST /EmpWebApp/GetEmpById HTTP/1.1" 200 585
0:0:0:0:0:0:0:1 - - [05/Jan/2024:13:08:14 +0530] "GET /EmpWebApp/GetAllEmps HTTP/1.1" 200 897
0:0:0:0:0:0:0:1 - - [05/Jan/2024:13:08:15 +0530] "GET /EmpWebApp/GetEmpById.html HTTP/1.1" 304 -
0:0:0:0:0:0:0:1 - - [05/Jan/2024:13:08:17 +0530] "POST /EmpWebApp/GetEmpById HTTP/1.1" 200 585
0:0:0:0:0:0:0:1 - - [05/Jan/2024:13:15:13 +0530] "GET /EmpWebApp/HRHomePage HTTP/1.1" 200 339
127.0.0.1 - - [05/Jan/2024:13:16:15 +0530] "GET / HTTP/1.1" 404 751
0:0:0:0:0:0:0:1 - - [05/Jan/2024:13:16:21 +0530] "POST /EmpWebApp/LoginServlet HTTP/1.1" 200 330
0:0:0:0:0:0:0:1 - - [05/Jan/2024:13:16:25 +0530] "GET /EmpWebApp/GetAllEmps HTTP/1.1" 200 888
0:0:0:0:0:0:0:1 - - [05/Jan/2024:13:16:26 +0530] "GET /EmpWebApp/GetAllEmps HTTP/1.1" 200 888
0:0:0:0:0:0:0:1 - - [05/Jan/2024:13:16:27 +0530] "GET /EmpWebApp/GetEmpById.html HTTP/1.1" 304 -
0:0:0:0:0:0:0:1 - - [05/Jan/2024:13:16:32 +0530] "POST /EmpWebApp/GetEmpById HTTP/1.1" 200 415
0:0:0:0:0:0:0:1 - - [05/Jan/2024:13:16:34 +0530] "GET /EmpWebApp/Logout HTTP/1.1" 404 771
0:0:0:0:0:0:0:1 - - [05/Jan/2024:13:17:03 +0530] "GET /EmpWebApp/Logout HTTP/1.1" 404 771
0:0:0:0:0:0:0:1 - - [05/Jan/2024:13:17:06 +0530] "GET /EmpWebApp/Logout HTTP/1.1" 404 771
127.0.0.1 - - [05/Jan/2024:13:17:31 +0530] "GET / HTTP/1.1" 404 751
0:0:0:0:0:0:0:1 - - [05/Jan/2024:13:17:32 +0530] "GET /EmpWebApp/Login.html HTTP/1.1" 200 527
0:0:0:0:0:0:0:1 - - [05/Jan/2024:13:17:33 +0530] "GET /favicon.ico HTTP/1.1" 404 762
0:0:0:0:0:0:0:1 - - [05/Jan/2024:13:17:39 +0530] "POST /EmpWebApp/LoginServlet HTTP/1.1" 200 337
0:0:0:0:0:0:0:1 - - [05/Jan/2024:13:17:42 +0530] "GET /EmpWebApp/GetAllEmps HTTP/1.1" 200 895
0:0:0:0:0:0:0:1 - - [05/Jan/2024:13:17:45 +0530] "GET /EmpWebApp/LogoutServlet HTTP/1.1" 200 527
0:0:0:0:0:0:0:1 - - [05/Jan/2024:13:17:47 +0530] "GET /EmpWebApp/Register.html HTTP/1.1" 200 1046
0:0:0:0:0:0:0:1 - - [05/Jan/2024:13:18:05 +0530] "POST /EmpWebApp/RegisterServlet HTTP/1.1" 200 659
