127.0.0.1 - - [08/Jan/2024:09:46:06 +0530] "GET / HTTP/1.1" 404 751
0:0:0:0:0:0:0:1 - - [08/Jan/2024:09:46:09 +0530] "GET /EmpWebApp/Login.html HTTP/1.1" 304 -
0:0:0:0:0:0:0:1 - - [08/Jan/2024:09:46:11 +0530] "GET /favicon.ico HTTP/1.1" 404 762
0:0:0:0:0:0:0:1 - - [08/Jan/2024:09:46:17 +0530] "GET /EmpWebApp/Register.html HTTP/1.1" 200 1046
0:0:0:0:0:0:0:1 - - [08/Jan/2024:09:46:27 +0530] "POST /EmpWebApp/LoginServlet HTTP/1.1" 200 337
0:0:0:0:0:0:0:1 - - [08/Jan/2024:09:46:30 +0530] "GET /EmpWebApp/GetAllEmps HTTP/1.1" 200 990
0:0:0:0:0:0:0:1 - - [08/Jan/2024:09:46:34 +0530] "GET /EmpWebApp/GetEmpById.html HTTP/1.1" 200 392
0:0:0:0:0:0:0:1 - - [08/Jan/2024:09:46:37 +0530] "POST /EmpWebApp/GetEmpById HTTP/1.1" 200 592
0:0:0:0:0:0:0:1 - - [08/Jan/2024:10:04:21 +0530] "POST /EmpWebApp/LoginServlet HTTP/1.1" 200 337
0:0:0:0:0:0:0:1 - - [08/Jan/2024:10:04:23 +0530] "GET /EmpWebApp/GetAllEmps HTTP/1.1" 200 990
0:0:0:0:0:0:0:1 - - [08/Jan/2024:10:04:40 +0530] "POST /EmpWebApp/LoginServlet HTTP/1.1" 200 231
0:0:0:0:0:0:0:1 - - [08/Jan/2024:10:04:44 +0530] "GET /EmpWebApp/LogoutServlet HTTP/1.1" 200 527
0:0:0:0:0:0:0:1 - - [08/Jan/2024:10:08:58 +0530] "POST /EmpWebApp/LoginServlet HTTP/1.1" 200 231
0:0:0:0:0:0:0:1 - - [08/Jan/2024:10:09:04 +0530] "POST /EmpWebApp/LoginServlet HTTP/1.1" 200 231
0:0:0:0:0:0:0:1 - - [08/Jan/2024:10:57:12 +0530] "POST /EmpWebApp/LoginServlet HTTP/1.1" 200 231
0:0:0:0:0:0:0:1 - - [08/Jan/2024:10:57:20 +0530] "POST /EmpWebApp/LoginServlet HTTP/1.1" 200 231
0:0:0:0:0:0:0:1 - - [08/Jan/2024:10:57:30 +0530] "POST /EmpWebApp/LoginServlet HTTP/1.1" 200 337
0:0:0:0:0:0:0:1 - - [08/Jan/2024:10:57:32 +0530] "GET /EmpWebApp/GetAllEmps HTTP/1.1" 200 990
0:0:0:0:0:0:0:1 - - [08/Jan/2024:10:58:34 +0530] "POST /EmpWebApp/LoginServlet HTTP/1.1" 200 231
0:0:0:0:0:0:0:1 - - [08/Jan/2024:10:58:43 +0530] "POST /EmpWebApp/LoginServlet HTTP/1.1" 200 231
0:0:0:0:0:0:0:1 - - [08/Jan/2024:10:59:05 +0530] "POST /EmpWebApp/LoginServlet HTTP/1.1" 200 286
127.0.0.1 - - [08/Jan/2024:10:59:34 +0530] "GET / HTTP/1.1" 404 751
0:0:0:0:0:0:0:1 - - [08/Jan/2024:10:59:34 +0530] "GET /EmpWebApp/EmpHomePage HTTP/1.1" 200 286
0:0:0:0:0:0:0:1 - - [08/Jan/2024:10:59:39 +0530] "GET /EmpWebApp/Profile HTTP/1.1" 200 382
0:0:0:0:0:0:0:1 - - [08/Jan/2024:10:59:44 +0530] "GET /EmpWebApp/GetAllEmps HTTP/1.1" 200 1029
0:0:0:0:0:0:0:1 - - [08/Jan/2024:11:00:24 +0530] "POST /EmpWebApp/LoginServlet HTTP/1.1" 200 286
0:0:0:0:0:0:0:1 - - [08/Jan/2024:11:00:26 +0530] "GET /EmpWebApp/Profile HTTP/1.1" 200 382
0:0:0:0:0:0:0:1 - - [08/Jan/2024:11:03:09 +0530] "POST /EmpWebApp/LoginServlet HTTP/1.1" 200 293
0:0:0:0:0:0:0:1 - - [08/Jan/2024:11:03:11 +0530] "GET /EmpWebApp/Profile HTTP/1.1" 200 572
0:0:0:0:0:0:0:1 - - [08/Jan/2024:11:03:23 +0530] "GET /EmpWebApp/Profile HTTP/1.1" 200 572
0:0:0:0:0:0:0:1 - - [08/Jan/2024:11:03:25 +0530] "GET /EmpWebApp/LogoutServle HTTP/1.1" 404 777
127.0.0.1 - - [08/Jan/2024:11:04:20 +0530] "GET / HTTP/1.1" 404 751
0:0:0:0:0:0:0:1 - - [08/Jan/2024:11:04:28 +0530] "POST /EmpWebApp/LoginServlet HTTP/1.1" 200 294
0:0:0:0:0:0:0:1 - - [08/Jan/2024:11:04:30 +0530] "GET /EmpWebApp/Profile HTTP/1.1" 200 573
0:0:0:0:0:0:0:1 - - [08/Jan/2024:11:04:45 +0530] "POST /EmpWebApp/LoginServlet HTTP/1.1" 200 643
0:0:0:0:0:0:0:1 - - [08/Jan/2024:11:04:58 +0530] "POST /EmpWebApp/LoginServlet HTTP/1.1" 200 287
0:0:0:0:0:0:0:1 - - [08/Jan/2024:11:05:00 +0530] "GET /EmpWebApp/Profile HTTP/1.1" 200 557
0:0:0:0:0:0:0:1 - - [08/Jan/2024:11:05:03 +0530] "GET /EmpWebApp/EmpHomePage HTTP/1.1" 200 287
0:0:0:0:0:0:0:1 - - [08/Jan/2024:11:13:49 +0530] "GET /EmpWebApp/LogoutServle HTTP/1.1" 404 777
0:0:0:0:0:0:0:1 - - [08/Jan/2024:11:13:59 +0530] "POST /EmpWebApp/LoginServlet HTTP/1.1" 200 294
0:0:0:0:0:0:0:1 - - [08/Jan/2024:11:14:04 +0530] "POST /EmpWebApp/LoginServlet HTTP/1.1" 200 294
127.0.0.1 - - [08/Jan/2024:11:14:35 +0530] "GET / HTTP/1.1" 404 751
0:0:0:0:0:0:0:1 - - [08/Jan/2024:11:14:50 +0530] "POST /EmpWebApp/LoginServlet HTTP/1.1" 200 643
0:0:0:0:0:0:0:1 - - [08/Jan/2024:11:15:10 +0530] "POST /EmpWebApp/RegisterServlet HTTP/1.1" 200 659
0:0:0:0:0:0:0:1 - - [08/Jan/2024:11:15:19 +0530] "POST /EmpWebApp/LoginServlet HTTP/1.1" 200 643
0:0:0:0:0:0:0:1 - - [08/Jan/2024:11:15:29 +0530] "POST /EmpWebApp/LoginServlet HTTP/1.1" 200 643
0:0:0:0:0:0:0:1 - - [08/Jan/2024:11:17:16 +0530] "POST /EmpWebApp/RegisterServlet HTTP/1.1" 200 659
0:0:0:0:0:0:0:1 - - [08/Jan/2024:11:17:23 +0530] "POST /EmpWebApp/LoginServlet HTTP/1.1" 200 310
0:0:0:0:0:0:0:1 - - [08/Jan/2024:11:17:24 +0530] "GET /EmpWebApp/Profile HTTP/1.1" 200 596
0:0:0:0:0:0:0:1 - - [08/Jan/2024:11:20:43 +0530] "GET /EmpWebApp/LogoutServlet HTTP/1.1" 304 -
0:0:0:0:0:0:0:1 - - [08/Jan/2024:11:20:48 +0530] "POST /EmpWebApp/LoginServlet HTTP/1.1" 200 306
0:0:0:0:0:0:0:1 - - [08/Jan/2024:11:20:55 +0530] "POST /EmpWebApp/LoginServlet HTTP/1.1" 200 306
0:0:0:0:0:0:0:1 - - [08/Jan/2024:11:21:00 +0530] "POST /EmpWebApp/LoginServlet HTTP/1.1" 200 306
0:0:0:0:0:0:0:1 - - [08/Jan/2024:11:21:20 +0530] "POST /EmpWebApp/LoginServlet HTTP/1.1" 200 306
127.0.0.1 - - [08/Jan/2024:11:29:06 +0530] "GET / HTTP/1.1" 404 751
0:0:0:0:0:0:0:1 - - [08/Jan/2024:11:29:13 +0530] "POST /EmpWebApp/LoginServlet HTTP/1.1" 200 327
0:0:0:0:0:0:0:1 - - [08/Jan/2024:11:29:15 +0530] "GET /EmpWebApp/Profile HTTP/1.1" 200 606
0:0:0:0:0:0:0:1 - - [08/Jan/2024:11:29:23 +0530] "POST /EmpWebApp/LoginServlet HTTP/1.1" 200 362
0:0:0:0:0:0:0:1 - - [08/Jan/2024:11:29:27 +0530] "GET /EmpWebApp/GetAllEmps HTTP/1.1" 200 1126
0:0:0:0:0:0:0:1 - - [08/Jan/2024:11:29:33 +0530] "POST /EmpWebApp/GetEmpById HTTP/1.1" 200 613
127.0.0.1 - - [08/Jan/2024:11:45:12 +0530] "GET / HTTP/1.1" 404 751
0:0:0:0:0:0:0:1 - - [08/Jan/2024:11:45:14 +0530] "GET /favicon.ico HTTP/1.1" 404 762
0:0:0:0:0:0:0:1 - - [08/Jan/2024:11:45:19 +0530] "POST /EmpWebApp/LoginServlet HTTP/1.1" 200 327
0:0:0:0:0:0:0:1 - - [08/Jan/2024:11:45:21 +0530] "GET /EmpWebApp/Profile HTTP/1.1" 200 606
0:0:0:0:0:0:0:1 - - [08/Jan/2024:11:45:43 +0530] "POST /EmpWebApp/LoginServlet HTTP/1.1" 200 327
0:0:0:0:0:0:0:1 - - [08/Jan/2024:11:45:46 +0530] "POST /EmpWebApp/LoginServlet HTTP/1.1" 200 327
0:0:0:0:0:0:0:1 - - [08/Jan/2024:11:45:47 +0530] "GET /EmpWebApp/Profile HTTP/1.1" 200 606
0:0:0:0:0:0:0:1 - - [08/Jan/2024:11:45:50 +0530] "GET /EmpWebApp/EmpHomePage HTTP/1.1" 200 327
0:0:0:0:0:0:0:1 - - [08/Jan/2024:12:00:04 +0530] "POST /EmpWebApp/LoginServlet HTTP/1.1" 200 327
0:0:0:0:0:0:0:1 - - [08/Jan/2024:12:00:07 +0530] "GET /EmpWebApp/Profile HTTP/1.1" 200 606
0:0:0:0:0:0:0:1 - - [08/Jan/2024:12:00:34 +0530] "POST /EmpWebApp/RegisterServlet HTTP/1.1" 200 659
0:0:0:0:0:0:0:1 - - [08/Jan/2024:12:00:41 +0530] "POST /EmpWebApp/LoginServlet HTTP/1.1" 200 643
0:0:0:0:0:0:0:1 - - [08/Jan/2024:12:00:47 +0530] "POST /EmpWebApp/LoginServlet HTTP/1.1" 200 327
0:0:0:0:0:0:0:1 - - [08/Jan/2024:12:00:48 +0530] "GET /EmpWebApp/Profile HTTP/1.1" 200 606
0:0:0:0:0:0:0:1 - - [08/Jan/2024:12:01:08 +0530] "POST /EmpWebApp/LoginServlet HTTP/1.1" 200 671
0:0:0:0:0:0:0:1 - - [08/Jan/2024:12:01:10 +0530] "GET /EmpWebApp/GetAllEmps HTTP/1.1" 200 1539
0:0:0:0:0:0:0:1 - - [08/Jan/2024:12:01:38 +0530] "POST /EmpWebApp/RegisterServlet HTTP/1.1" 200 1173
0:0:0:0:0:0:0:1 - - [08/Jan/2024:12:07:30 +0530] "POST /EmpWebApp/LoginServlet HTTP/1.1" 200 671
0:0:0:0:0:0:0:1 - - [08/Jan/2024:12:07:31 +0530] "GET /EmpWebApp/GetAllEmps HTTP/1.1" 200 1539
0:0:0:0:0:0:0:1 - - [08/Jan/2024:12:15:12 +0530] "POST /EmpWebApp/LoginServlet HTTP/1.1" 200 607
0:0:0:0:0:0:0:1 - - [08/Jan/2024:12:15:14 +0530] "GET /EmpWebApp/Profile HTTP/1.1" 200 886
0:0:0:0:0:0:0:1 - - [08/Jan/2024:12:15:16 +0530] "GET /EmpWebApp/Logout HTTP/1.1" 404 771
0:0:0:0:0:0:0:1 - - [08/Jan/2024:12:15:31 +0530] "GET /EmpWebApp/Logout HTTP/1.1" 404 771
0:0:0:0:0:0:0:1 - - [08/Jan/2024:12:16:17 +0530] "GET /EmpWebApp/Logout HTTP/1.1" 404 771
0:0:0:0:0:0:0:1 - - [08/Jan/2024:12:16:21 +0530] "GET /EmpWebApp/Logout HTTP/1.1" 404 771
0:0:0:0:0:0:0:1 - - [08/Jan/2024:12:16:26 +0530] "GET /EmpWebApp/EmpHomePage.jsp HTTP/1.1" 200 607
0:0:0:0:0:0:0:1 - - [08/Jan/2024:12:16:27 +0530] "GET /EmpWebApp/Logout HTTP/1.1" 404 771
127.0.0.1 - - [08/Jan/2024:12:20:01 +0530] "GET / HTTP/1.1" 404 751
0:0:0:0:0:0:0:1 - - [08/Jan/2024:12:20:08 +0530] "POST /EmpWebApp/LoginServlet HTTP/1.1" 200 671
0:0:0:0:0:0:0:1 - - [08/Jan/2024:12:20:12 +0530] "GET /EmpWebApp/GetAllEmps HTTP/1.1" 200 2017
0:0:0:0:0:0:0:1 - - [08/Jan/2024:12:20:12 +0530] "GET /EmpWebApp/GetAllEmps HTTP/1.1" 200 2017
0:0:0:0:0:0:0:1 - - [08/Jan/2024:12:20:19 +0530] "POST /EmpWebApp/GetEmpById HTTP/1.1" 200 926
0:0:0:0:0:0:0:1 - - [08/Jan/2024:12:20:27 +0530] "POST /EmpWebApp/LoginServlet HTTP/1.1" 200 614
0:0:0:0:0:0:0:1 - - [08/Jan/2024:12:20:29 +0530] "GET /EmpWebApp/Profile HTTP/1.1" 200 893
0:0:0:0:0:0:0:1 - - [08/Jan/2024:12:25:01 +0530] "GET /EmpWebApp/HRHomePage.jsp HTTP/1.1" 200 673
0:0:0:0:0:0:0:1 - - [08/Jan/2024:12:25:02 +0530] "GET /favicon.ico HTTP/1.1" 404 762
0:0:0:0:0:0:0:1 - - [08/Jan/2024:12:25:04 +0530] "GET /EmpWebApp/GetAllEmps HTTP/1.1" 200 2019
0:0:0:0:0:0:0:1 - - [08/Jan/2024:12:25:08 +0530] "POST /EmpWebApp/GetEmpById HTTP/1.1" 200 916
0:0:0:0:0:0:0:1 - - [08/Jan/2024:12:25:19 +0530] "POST /EmpWebApp/LoginServlet HTTP/1.1" 200 670
0:0:0:0:0:0:0:1 - - [08/Jan/2024:12:25:21 +0530] "GET /EmpWebApp/GetEmpById.jsp HTTP/1.1" 200 1203
0:0:0:0:0:0:0:1 - - [08/Jan/2024:12:25:24 +0530] "POST /EmpWebApp/GetEmpById HTTP/1.1" 200 755
0:0:0:0:0:0:0:1 - - [08/Jan/2024:12:25:27 +0530] "GET /EmpWebApp/GetEmpById.jsp HTTP/1.1" 200 1203
0:0:0:0:0:0:0:1 - - [08/Jan/2024:12:25:31 +0530] "POST /EmpWebApp/GetEmpById HTTP/1.1" 200 925
0:0:0:0:0:0:0:1 - - [08/Jan/2024:12:35:15 +0530] "GET /EmpWebApp/HRHomePage.jsp HTTP/1.1" 200 670
0:0:0:0:0:0:0:1 - - [08/Jan/2024:12:35:23 +0530] "POST /EmpWebApp/LoginServlet HTTP/1.1" 200 614
0:0:0:0:0:0:0:1 - - [08/Jan/2024:12:35:25 +0530] "GET /EmpWebApp/Profile HTTP/1.1" 200 893
0:0:0:0:0:0:0:1 - - [08/Jan/2024:12:35:32 +0530] "POST /EmpWebApp/LoginServlet HTTP/1.1" 200 670
0:0:0:0:0:0:0:1 - - [08/Jan/2024:12:35:33 +0530] "GET /EmpWebApp/GetEmpById.jsp HTTP/1.1" 200 1203
0:0:0:0:0:0:0:1 - - [08/Jan/2024:12:35:39 +0530] "POST /EmpWebApp/GetEmpById HTTP/1.1" 200 1277
127.0.0.1 - - [08/Jan/2024:12:47:49 +0530] "GET / HTTP/1.1" 404 751
0:0:0:0:0:0:0:1 - - [08/Jan/2024:12:47:58 +0530] "POST /EmpWebApp/LoginServlet HTTP/1.1" 200 618
0:0:0:0:0:0:0:1 - - [08/Jan/2024:12:48:00 +0530] "GET /EmpWebApp/Profile.jsp HTTP/1.1" 200 1252
0:0:0:0:0:0:0:1 - - [08/Jan/2024:12:48:08 +0530] "POST /EmpWebApp/LoginServlet HTTP/1.1" 200 643
0:0:0:0:0:0:0:1 - - [08/Jan/2024:12:48:16 +0530] "POST /EmpWebApp/LoginServlet HTTP/1.1" 200 670
0:0:0:0:0:0:0:1 - - [08/Jan/2024:12:48:17 +0530] "GET /EmpWebApp/GetEmpById.jsp HTTP/1.1" 200 1203
0:0:0:0:0:0:0:1 - - [08/Jan/2024:12:48:23 +0530] "POST /EmpWebApp/GetEmpById HTTP/1.1" 200 1277
